<?xml version="1.0" encoding="iso-8859-1"?>
<!-- Generator: Adobe Illustrator 16.0.0, SVG Export Plug-In . SVG Version: 6.00 Build 0)  -->
<!DOCTYPE svg PUBLIC "-//W3C//DTD SVG 1.1//EN" "http://www.w3.org/Graphics/SVG/1.1/DTD/svg11.dtd">
<svg version="1.1" xmlns="http://www.w3.org/2000/svg" xmlns:xlink="http://www.w3.org/1999/xlink" x="0px" y="0px"
	 width="113.386px" height="113.386px" viewBox="0 0 113.386 113.386" style="enable-background:new 0 0 113.386 113.386;"
	 xml:space="preserve">
<g id="fullscreen-off">
	<g>
		<polygon style="fill:#231F20;" points="71.866,66.951 71.866,92.248 79.866,92.248 79.866,74.951 97.163,74.951 97.163,66.951 		
			"/>
		<polygon style="fill:#231F20;" points="97.101,42.295 79.804,42.295 79.804,24.998 71.804,24.998 71.804,50.295 97.101,50.295 		
			"/>
		<polygon style="fill:#231F20;" points="15.976,74.951 33.271,74.951 33.271,92.248 41.271,92.248 41.271,66.951 15.976,66.951 		
			"/>
		<polygon style="fill:#231F20;" points="41.208,24.998 33.208,24.998 33.208,42.295 15.913,42.295 15.913,50.295 41.208,50.295 		
			"/>
	</g>
</g>
<g id="Layer_1">
</g>
</svg>
