<?xml version="1.0" encoding="iso-8859-1"?>
<!-- Generator: Adobe Illustrator 16.0.0, SVG Export Plug-In . SVG Version: 6.00 Build 0)  -->
<!DOCTYPE svg PUBLIC "-//W3C//DTD SVG 1.1//EN" "http://www.w3.org/Graphics/SVG/1.1/DTD/svg11.dtd">
<svg version="1.1" xmlns="http://www.w3.org/2000/svg" xmlns:xlink="http://www.w3.org/1999/xlink" x="0px" y="0px"
	 width="113.386px" height="113.386px" viewBox="0 0 113.386 113.386" style="enable-background:new 0 0 113.386 113.386;"
	 xml:space="preserve">
<g id="play">
	<path style="fill:#231F20;" d="M85.511,56.653l-56,41.894V14.741L85.511,56.653z"/>
</g>
<g id="Layer_1">
</g>
</svg>
