<?xml version="1.0" standalone="no"?>
<!DOCTYPE svg PUBLIC "-//W3C//DTD SVG 1.1//EN" "http://www.w3.org/Graphics/SVG/1.1/DTD/svg11.dtd" >
<svg xmlns="http://www.w3.org/2000/svg">
<metadata>Generated by IcoMoon</metadata>
<defs>
<font id="cinco_video05" horiz-adv-x="1024">
<font-face units-per-em="1024" ascent="960" descent="-64" />
<missing-glyph horiz-adv-x="1024" />
<glyph unicode="&#x20;" horiz-adv-x="512" d="" />
<glyph unicode="&#x43;" glyph-name="chromecast" horiz-adv-x="1293" d="M631.461 83.433c-6.056 29.28 0.885 67.262-9.271 94.825h465.915v564.004h-809.223v-220.696c-27.537 10.298-68.782 18.391-98.089 24.522v294.263h1005.402v-756.919h-554.733zM543.994 31.125h-94.434c-26.262 176.876-165.867 305.615-342.325 331.49v94.261c228.251-27.515 409.245-197.526 436.76-425.75zM378.985 31.125h-90.681c-23.735 87.026-93.234 144.191-181.069 166.014v90.29c136.929-24.251 245.268-120.135 271.751-256.304zM215.72 31.125h-108.485v92.251c49.512-16.897 89.236-43.896 108.485-92.251z" />
<glyph unicode="&#x61;" glyph-name="fullscreen" horiz-adv-x="1058" d="M887.467 51.2h-170.667v102.4h136.533v170.667h102.4v-273.067h-68.267zM853.333 699.734h-136.533v102.4h238.933v-273.067h-102.4v170.667zM102.4 51.2v273.067h102.4v-170.667h136.533v-102.4h-238.933zM204.8 529.067h-102.4v273.067h238.933v-102.4h-136.533v-170.667z" />
<glyph unicode="&#x62;" glyph-name="windowed" horiz-adv-x="1058" d="M819.2 221.867v-170.667h-102.4v273.067h238.933v-102.4h-136.533zM716.8 529.067v273.067h102.4v-170.667h136.533v-102.4h-238.933zM238.933 221.867h-136.533v102.4h238.933v-273.067h-102.4v170.667zM102.4 529.067v102.4h136.533v170.667h102.4v-273.067h-238.933z" />
<glyph unicode="&#x63;" glyph-name="next" horiz-adv-x="1058" d="M955.733 427.384l-477.867-376.183v295.561l-375.467-295.561v750.933l375.467-294.468v294.468l477.867-374.75zM921.6 802.134h68.267v-750.933h-68.267v750.933z" />
<glyph unicode="&#x64;" glyph-name="pause" horiz-adv-x="1058" d="M273.067 733.867h170.667v-614.4h-170.667v614.4zM614.4 733.867h170.667v-614.4h-170.667v614.4z" />
<glyph unicode="&#x65;" glyph-name="play" horiz-adv-x="1058" d="M273.067 802.134l580.267-376.081-580.267-374.852v750.933z" />
<glyph unicode="&#x66;" glyph-name="playlist" d="M143.712 757.143h154.793v-72.249h-154.793v72.249zM380.029 757.143h502.481v-72.249h-502.481v72.249zM143.712 571.997h154.793v-72.249h-154.793v72.249zM380.029 571.997h502.481v-72.249h-502.481v72.249zM143.712 386.859h154.793v-72.249h-154.793v72.249zM380.029 386.859h502.481v-72.249h-502.481v72.249zM143.712 201.722h154.793v-72.249h-154.793v72.249zM380.029 201.722h502.481v-72.249h-502.481v72.249z" />
<glyph unicode="&#x67;" glyph-name="prev" horiz-adv-x="1058" d="M580.267 802.134v-294.468l375.467 294.468v-750.933l-375.467 295.561v-295.561l-477.867 376.183 477.867 374.75zM68.267 802.134h68.267v-750.933h-68.267v750.933z" />
<glyph unicode="&#x68;" glyph-name="repeat" d="M540.24 78.565c-187.982 0-340.382 152.391-340.382 340.382 0 93.3 37.642 177.732 98.448 239.198l-113.214 113.232 325.526 22.542-22.542-325.526-118.307 118.307c-42.5-43.187-68.772-102.377-68.772-167.744 0-132.143 107.118-239.261 239.252-239.261 132.143 0 239.261 107.118 239.261 239.261 0 78.462-37.786 148.11-96.145 191.739l58.512 82.445c84.134-61.971 138.745-161.693 138.745-274.184 0.009-188-152.382-340.391-340.382-340.391z" />
<glyph unicode="&#x69;" glyph-name="shuffle" d="M798.594 578.261h-101.216l-58.564-67.461-79.050 67.871 82.515 95.046v8.746h156.306v103.502l156.297-155.596-156.288-155.596v103.484zM798.594 317.152v103.184l156.297-155.138-156.297-155.127v103.181h-156.315v8.755l-308.929 354.943h-264.223v103.912h308.799l1.678 1.469 1.277-1.469h0.867v-1.018l315.639-362.684h101.207zM389.011 381.928l79.073-67.889-86.34-99.47v-1.018h-0.867l-1.277-1.487-1.678 1.487h-308.799v104.202h264.223l55.661 64.175z" />
<glyph unicode="&#x6a;" glyph-name="volume" horiz-adv-x="1058" d="M819.2 153.6v512h68.267v-512h-68.267zM682.667 563.2h68.267v-307.2h-68.267v307.2zM341.333 256h-170.667v307.2h170.667l204.8 238.933h68.267v-750.933h-68.267l-204.8 204.8z" />
<glyph unicode="&#x6f;" glyph-name="spinner, busy, loading" d="M1024 448c-1.278 66.862-15.784 133.516-42.576 194.462-26.704 61-65.462 116.258-113.042 161.92-47.552 45.696-103.944 81.82-164.984 105.652-61.004 23.924-126.596 35.352-191.398 33.966-64.81-1.282-129.332-15.374-188.334-41.356-59.048-25.896-112.542-63.47-156.734-109.576-44.224-46.082-79.16-100.708-102.186-159.798-23.114-59.062-34.128-122.52-32.746-185.27 1.286-62.76 14.964-125.148 40.134-182.206 25.088-57.1 61.476-108.828 106.11-151.548 44.61-42.754 97.472-76.504 154.614-98.72 57.118-22.304 118.446-32.902 179.142-31.526 60.708 1.29 120.962 14.554 176.076 38.914 55.15 24.282 105.116 59.48 146.366 102.644 41.282 43.14 73.844 94.236 95.254 149.43 13.034 33.458 21.88 68.4 26.542 103.798 1.246-0.072 2.498-0.12 3.762-0.12 35.346 0 64 28.652 64 64 0 1.796-0.094 3.572-0.238 5.332h0.238zM922.306 278.052c-23.472-53.202-57.484-101.4-99.178-141.18-41.67-39.81-91-71.186-144.244-91.79-53.228-20.678-110.29-30.452-166.884-29.082-56.604 1.298-112.596 13.736-163.82 36.474-51.25 22.666-97.684 55.49-135.994 95.712-38.338 40.198-68.528 87.764-88.322 139.058-19.87 51.284-29.228 106.214-27.864 160.756 1.302 54.552 13.328 108.412 35.254 157.69 21.858 49.3 53.498 93.97 92.246 130.81 38.73 36.868 84.53 65.87 133.874 84.856 49.338 19.060 102.136 28.006 154.626 26.644 52.5-1.306 104.228-12.918 151.562-34.034 47.352-21.050 90.256-51.502 125.624-88.782 35.396-37.258 63.21-81.294 81.39-128.688 18.248-47.392 26.782-98.058 25.424-148.496h0.238c-0.144-1.76-0.238-3.536-0.238-5.332 0-33.012 24.992-60.174 57.086-63.624-6.224-34.822-16.53-68.818-30.78-100.992z" />
<glyph unicode="&#x73;" glyph-name="share" horiz-adv-x="1058" d="M704 301.5c-26.385 0-50.586-9.728-70.076-25.941l-200.397 130.628c0.99 6.656 1.673 13.483 1.673 20.48s-0.683 13.79-1.673 20.514l200.397 130.628c19.456-16.247 43.657-25.975 70.076-25.975 63.59 0 115.2 56.047 115.2 125.133 0 69.12-51.61 125.167-115.2 125.167s-115.2-56.047-115.2-125.167c0-6.963 0.683-13.79 1.673-20.48l-200.397-130.628c-19.422 16.213-43.657 25.975-70.076 25.975-63.625 0-115.2-56.047-115.2-125.167 0-69.086 51.575-125.167 115.2-125.167 26.385 0 50.62 9.728 70.076 26.010l200.397-130.628c-0.99-6.69-1.673-13.517-1.673-20.548 0-69.086 51.61-125.133 115.2-125.133s115.2 56.047 115.2 125.133c0 69.12-51.61 125.167-115.2 125.167z" />
<glyph unicode="&#x74;" glyph-name="cincopa-icons-cc" d="M887.168 755.2h-750.336c-19.021 0-34.432-18.406-34.432-41.062v-532.25c0-22.707 15.411-41.088 34.432-41.088h750.362c18.995 0 34.406 18.381 34.406 41.062v532.275c0 22.656-15.411 41.062-34.432 41.062zM382.899 345.037c16.102 0 31.718 2.227 46.822 6.733 15.104 4.48 30.31 9.882 45.594 16.179v-83.174c-30.387-13.44-64.768-20.173-103.117-20.173-54.963 0-97.101 15.923-126.413 47.821-29.312 31.872-43.955 77.952-43.955 138.214 0 37.683 7.091 70.835 21.299 99.379s34.637 50.509 61.286 65.869 57.984 23.040 94.029 23.040c39.347 0 76.954-8.55 112.819-25.651l-30.131-77.466c-13.44 6.298-26.906 11.622-40.346 15.949-13.44 4.301-27.904 6.477-43.341 6.477-23.424 0-41.677-9.6-54.81-28.774-13.107-19.2-19.686-45.619-19.686-79.334-0.026-70.067 26.65-105.088 79.949-105.088zM713.907 345.037c16.102 0 31.718 2.227 46.822 6.733 15.13 4.48 30.31 9.882 45.568 16.179v-83.174c-30.387-13.44-64.742-20.173-103.091-20.173-54.963 0-97.101 15.923-126.413 47.821-29.338 31.872-43.981 77.952-43.981 138.214 0 37.683 7.091 70.835 21.299 99.379s34.637 50.509 61.286 65.869 58.010 23.040 94.029 23.040c39.347 0 76.954-8.55 112.819-25.651l-30.131-77.466c-13.44 6.298-26.906 11.622-40.346 15.949-13.44 4.301-27.904 6.477-43.341 6.477-23.398 0-41.677-9.6-54.81-28.774-13.133-19.2-19.686-45.619-19.686-79.334 0.026-70.067 26.675-105.088 79.974-105.088z" />
<glyph unicode="&#x77;" glyph-name="start-play" horiz-adv-x="1058" d="M936.311 391.441c-28.604-22.938-637.611-390.451-671.437-415.983-24.781-18.739-57.31 1.98-57.31 44.544 0 43.247 0 801.894 0 831.727 0 38.673 29.423 67.447 58.47 44.817 23.313-18.125 630.511-383.761 670.242-415.027 26.146-20.514 25.702-69.53 0.034-90.078zM308.19 753.596v-634.129l513.365 317.065-513.365 317.065z" />
</font></defs></svg>