<?xml version="1.0" encoding="iso-8859-1"?>
<!-- Generator: Adobe Illustrator 16.0.0, SVG Export Plug-In . SVG Version: 6.00 Build 0)  -->
<!DOCTYPE svg PUBLIC "-//W3C//DTD SVG 1.1//EN" "http://www.w3.org/Graphics/SVG/1.1/DTD/svg11.dtd">
<svg version="1.1" xmlns="http://www.w3.org/2000/svg" xmlns:xlink="http://www.w3.org/1999/xlink" x="0px" y="0px"
	 width="113.386px" height="113.386px" viewBox="0 0 113.386 113.386" style="enable-background:new 0 0 113.386 113.386;"
	 xml:space="preserve">
<g id="previous">
	<path style="fill-rule:evenodd;clip-rule:evenodd;fill:#231F20;" d="M27.329,49.824c11.095-8.939,30.073-24.238,41.433-33.39
		c5.055-4.34,9.031,0.129,9.373,1.427c2.154,3.217,5.326,7.68,8.355,12.794L52.485,56.896l33.861,26.135
		c-2.938,5.191-6.018,9.652-8.211,12.658c-2.391,2.398-5.67,4.658-9.334,1.73C57.44,88.252,38.4,72.908,27.298,63.969
		C24.916,61.389,24.111,52.176,27.329,49.824z"/>
</g>
<g id="Layer_1">
</g>
</svg>
