<?xml version="1.0" encoding="iso-8859-1"?>
<!-- Generator: Adobe Illustrator 16.0.0, SVG Export Plug-In . SVG Version: 6.00 Build 0)  -->
<!DOCTYPE svg PUBLIC "-//W3C//DTD SVG 1.1//EN" "http://www.w3.org/Graphics/SVG/1.1/DTD/svg11.dtd">
<svg version="1.1" xmlns="http://www.w3.org/2000/svg" xmlns:xlink="http://www.w3.org/1999/xlink" x="0px" y="0px"
	 width="113.386px" height="113.386px" viewBox="0 0 113.386 113.386" style="enable-background:new 0 0 113.386 113.386;"
	 xml:space="preserve">
<g id="volume">
	<g>
		<polygon style="fill:#231F20;" points="18.174,38.02 18.174,75.28 39.842,75.28 62.849,95.243 62.849,18.045 39.829,38.02 		"/>
		<path style="fill:#231F20;" d="M64.578,48.866c4.288,4.289,4.288,11.268,0,15.557l3.535,3.535c6.238-6.239,6.238-16.39,0-22.627
			L64.578,48.866z"/>
		<path style="fill:#231F20;" d="M77.007,36.49l-3.535,3.535c9.162,9.163,9.162,24.074,0,33.239l3.535,3.535
			C88.118,65.685,88.118,47.602,77.007,36.49z"/>
		<path style="fill:#231F20;" d="M88.254,25.278l-3.535,3.535c15.344,15.345,15.344,40.314,0,55.662l3.535,3.535
			C105.547,70.714,105.547,42.572,88.254,25.278z"/>
	</g>
</g>
<g id="Layer_1">
</g>
</svg>
