<?xml version="1.0" encoding="iso-8859-1"?>
<!-- Generator: Adobe Illustrator 16.0.0, SVG Export Plug-In . SVG Version: 6.00 Build 0)  -->
<!DOCTYPE svg PUBLIC "-//W3C//DTD SVG 1.1//EN" "http://www.w3.org/Graphics/SVG/1.1/DTD/svg11.dtd">
<svg version="1.1" xmlns="http://www.w3.org/2000/svg" xmlns:xlink="http://www.w3.org/1999/xlink" x="0px" y="0px" width="31px"
	 height="30px" viewBox="0 0 31 30" style="enable-background:new 0 0 31 30;" xml:space="preserve">
<g id="volume">
	<path style="fill-rule:evenodd;clip-rule:evenodd;" d="M24,23V8h2v15H24z M20,11h2v9h-2V11z M10,20H5v-9h5l6-7h2v22h-2L10,20z"/>
</g>
<g id="Layer_1">
</g>
</svg>
