<?xml version="1.0" standalone="no"?>
<!DOCTYPE svg PUBLIC "-//W3C//DTD SVG 1.1//EN" "http://www.w3.org/Graphics/SVG/1.1/DTD/svg11.dtd">
<svg xmlns="http://www.w3.org/2000/svg">
<metadata>Generated by Fontastic.me</metadata>
<defs>
<font id="cinco-video02" horiz-adv-x="512">
<font-face font-family="cinco-video02" units-per-em="512" ascent="480" descent="-32"/>
<missing-glyph horiz-adv-x="512" />

<glyph unicode="&#97;" d="M393 284l-33 0 27-27-120 0 0 120 27-27 0 32-38 39-38-39 0-32 27 27 0-120-120 0 27 27-32 0-39-38 39-39 32 0-27 27 120 0 0-119-27 27 0-33 38-38 38 38 0 33-27-27 0 119 120 0-27-27 33 0 38 39z"/>
<glyph unicode="&#98;" d="M326 209l0-115 36 0 0 78 78 0 0 37z m114 111l-78 0 0 79-37 0 0-115 115 0z m-368-148l79 0 0-78 36 0 0 115-115 0z m115 227l-37 0 0-79-78 0 0-36 115 0z"/>
<glyph unicode="&#99;" d="M384 221c-50-40-137-110-188-151-17-14-32-3-42 7-10 14-24 34-38 58l154 118-154 119c13 23 28 43 38 58 1 6 19 26 42 6 52-41 138-110 188-151 14-10 11-52 0-64z"/>
<glyph unicode="&#100;" d="M182 427l-30 0c-10 0-18-8-18-17l0-310c0-9 8-17 18-17l30 0c10 0 18 8 18 17l0 310c0 9-8 17-18 17z m174 0l-31 0c-10 0-18-8-18-17l0-310c0-9 8-17 18-17l31 0c10 0 18 8 18 17l0 310c0 9-8 17-18 17z"/>
<glyph unicode="&#101;" d="M347 226c-46-36-125-98-172-135-15-12-37-11-38 7 0 74 0 240 0 314 1 13 18 23 38 6 47-37 126-99 172-135 13-9 10-47 0-57z"/>
<glyph unicode="&#102;" d="M72 410l78 0 0-36-78 0z m119 0l252 0 0-36-252 0z m-119-93l78 0 0-36-78 0z m119 0l252 0 0-36-252 0z m-119-93l78 0 0-36-78 0z m119 0l252 0 0-36-252 0z m-119-92l78 0 0-37-78 0z m119 0l252 0 0-37-252 0z"/>
<glyph unicode="&#103;" d="M124 286c50 41 136 110 188 152 22 19 40-1 42-7 10-15 24-35 38-58l-154-119 153-118c-13-24-27-44-37-58-11-10-26-21-42-7-52 41-138 111-188 151-11 12-15 54 0 64z"/>
<glyph unicode="&#104;" d="M271 70c-94 0-171 76-171 171 0 46 19 89 50 120l-57 56 163 12-11-164-59 60c-22-22-35-52-35-84 0-67 54-120 120-120 66 0 120 53 120 120 0 39-19 74-48 96l29 41c42-31 70-81 70-137 0-95-77-171-171-171z"/>
<glyph unicode="&#105;" d="M418 328l-57 0-33-38-44 38 46 54 0 5 88 0 0 58 87-88-87-87z m0-146l0 58 87-87-87-87 0 57-88 0 0 5-173 199-149 0 0 59 174 0 1 1 0-1 1 0 0-1 177-203z m-230 36l44-38-48-56 0 0-1 0 0-1-1 1-174 0 0 58 149 0z"/>
<glyph unicode="&#106;" d="M82 340l0-169 99 0 104-91 0 350-105-90z m211-49c19-20 19-51 0-71l16-16c28 28 28 74 0 103z m56 56l-16-16c41-42 41-109 0-151l16-16c50 50 50 132 0 183z m51 50l-16-16c69-69 69-182 0-252l16-16c78 79 78 206 0 284z"/>
</font></defs></svg>
