{
	"IcoMoonType": "selection",
	"icons": [
		{
			"icon": {
				"paths": [
					"M1024 512c-1.278-66.862-15.784-133.516-42.576-194.462-26.704-61-65.462-116.258-113.042-161.92-47.552-45.696-103.944-81.82-164.984-105.652-61.004-23.924-126.596-35.352-191.398-33.966-64.81 1.282-129.332 15.374-188.334 41.356-59.048 25.896-112.542 63.47-156.734 109.576-44.224 46.082-79.16 100.708-102.186 159.798-23.114 59.062-34.128 122.52-32.746 185.27 1.286 62.76 14.964 125.148 40.134 182.206 25.088 57.1 61.476 108.828 106.11 151.548 44.61 42.754 97.472 76.504 154.614 98.72 57.118 22.304 118.446 32.902 179.142 31.526 60.708-1.29 120.962-14.554 176.076-38.914 55.15-24.282 105.116-59.48 146.366-102.644 41.282-43.14 73.844-94.236 95.254-149.43 13.034-33.458 21.88-68.4 26.542-103.798 1.246 0.072 2.498 0.12 3.762 0.12 35.346 0 64-28.652 64-64 0-1.796-0.094-3.572-0.238-5.332h0.238zM922.306 681.948c-23.472 53.202-57.484 101.4-99.178 141.18-41.67 39.81-91 71.186-144.244 91.79-53.228 20.678-110.29 30.452-166.884 29.082-56.604-1.298-112.596-13.736-163.82-36.474-51.25-22.666-97.684-55.49-135.994-95.712-38.338-40.198-68.528-87.764-88.322-139.058-19.87-51.284-29.228-106.214-27.864-160.756 1.302-54.552 13.328-108.412 35.254-157.69 21.858-49.3 53.498-93.97 92.246-130.81 38.73-36.868 84.53-65.87 133.874-84.856 49.338-19.060 102.136-28.006 154.626-26.644 52.5 1.306 104.228 12.918 151.562 34.034 47.352 21.050 90.256 51.502 125.624 88.782 35.396 37.258 63.21 81.294 81.39 128.688 18.248 47.392 26.782 98.058 25.424 148.496h0.238c-0.144 1.76-0.238 3.536-0.238 5.332 0 33.012 24.992 60.174 57.086 63.624-6.224 34.822-16.53 68.818-30.78 100.992z"
				],
				"attrs": [],
				"isMulticolor": false,
				"tags": [
					"spinner",
					"loading",
					"loading-wheel",
					"busy",
					"wait"
				],
				"grid": 0
			},
			"attrs": [],
			"properties": {
				"order": 20,
				"id": 0,
				"prevSize": 32,
				"code": 111,
				"name": "spinner, busy, loading"
			},
			"setIdx": 1,
			"setId": 2,
			"iconIdx": 1
		},
		{
			"icon": {
				"paths": [
					"M498.731 850.496c-5.269-25.472 0.768-58.517-8.064-82.496h405.333v-490.667h-704v192c-23.957-8.96-59.84-16-85.333-21.333v-256h874.667v658.496h-482.603zM422.635 896h-82.155c-22.848-153.877-144.299-265.877-297.813-288.384v-82.005c198.571 23.936 356.032 171.84 379.968 370.389zM279.083 896h-78.891c-20.651-75.712-81.109-125.44-157.525-144.427v-78.549c119.125 21.099 213.376 104.512 236.416 222.976zM137.045 896h-94.379v-80.256c43.072 14.699 77.632 38.187 94.379 80.256z"
				],
				"attrs": [],
				"isMulticolor": false,
				"grid": 0,
				"tags": [
					"chromecast"
				]
			},
			"attrs": [],
			"properties": {
				"order": 14,
				"id": 3,
				"prevSize": 32,
				"code": 67,
				"name": "chromecast"
			},
			"setIdx": 2,
			"setId": 1,
			"iconIdx": 0
		},
		{
			"icon": {
				"paths": [
					"M143.712 202.857h154.793v72.249h-154.793v-72.249z",
					"M380.029 202.857h502.481v72.249h-502.481v-72.249z",
					"M143.712 388.003h154.793v72.249h-154.793v-72.249z",
					"M380.029 388.003h502.481v72.249h-502.481v-72.249z",
					"M143.712 573.141h154.793v72.249h-154.793v-72.249z",
					"M380.029 573.141h502.481v72.249h-502.481v-72.249z",
					"M143.712 758.278h154.793v72.249h-154.793v-72.249z",
					"M380.029 758.278h502.481v72.249h-502.481v-72.249z"
				],
				"attrs": [],
				"isMulticolor": false,
				"grid": 0,
				"tags": [
					"playlist"
				]
			},
			"attrs": [],
			"properties": {
				"order": 11,
				"id": 2,
				"prevSize": 32,
				"code": 102,
				"name": "playlist"
			},
			"setIdx": 2,
			"setId": 1,
			"iconIdx": 1
		},
		{
			"icon": {
				"paths": [
					"M540.24 881.435c-187.982 0-340.382-152.391-340.382-340.382 0-93.3 37.642-177.732 98.448-239.198l-113.214-113.232 325.526-22.542-22.542 325.526-118.307-118.307c-42.5 43.187-68.772 102.377-68.772 167.744 0 132.143 107.118 239.261 239.252 239.261 132.143 0 239.261-107.118 239.261-239.261 0-78.462-37.786-148.11-96.145-191.739l58.512-82.445c84.134 61.971 138.745 161.693 138.745 274.184 0.009 188-152.382 340.391-340.382 340.391z"
				],
				"attrs": [],
				"isMulticolor": false,
				"grid": 0,
				"tags": [
					"repeat"
				]
			},
			"attrs": [],
			"properties": {
				"order": 12,
				"id": 1,
				"prevSize": 32,
				"code": 104,
				"name": "repeat"
			},
			"setIdx": 2,
			"setId": 1,
			"iconIdx": 2
		},
		{
			"icon": {
				"paths": [
					"M798.594 381.739h-101.216l-58.564 67.461-79.050-67.871 82.515-95.046v-8.746h156.306v-103.502l156.297 155.596-156.288 155.596v-103.484zM798.594 642.848v-103.184l156.297 155.138-156.297 155.127v-103.181h-156.315v-8.755l-308.929-354.943h-264.223v-103.912h308.799l1.678-1.469 1.277 1.469h0.867v1.018l315.639 362.684h101.207zM389.011 578.072l79.073 67.889-86.34 99.47v1.018h-0.867l-1.277 1.487-1.678-1.487h-308.799v-104.202h264.223l55.661-64.175z"
				],
				"attrs": [],
				"isMulticolor": false,
				"grid": 0,
				"tags": [
					"shuffle"
				]
			},
			"attrs": [],
			"properties": {
				"order": 10,
				"id": 0,
				"prevSize": 32,
				"code": 105,
				"name": "shuffle"
			},
			"setIdx": 2,
			"setId": 1,
			"iconIdx": 3
		},
		{
			"icon": {
				"paths": [
					"M273.067 204.8h170.667v614.4h-170.667v-614.4z",
					"M614.4 204.8h170.667v614.4h-170.667v-614.4z"
				],
				"attrs": [],
				"isMulticolor": false,
				"width": 1058,
				"grid": 24,
				"tags": [
					"pause"
				]
			},
			"attrs": [],
			"properties": {
				"order": 9,
				"id": 8,
				"prevSize": 32,
				"code": 100,
				"name": "pause"
			},
			"setIdx": 3,
			"setId": 0,
			"iconIdx": 0
		},
		{
			"icon": {
				"paths": [
					"M887.467 887.467h-170.667v-102.4h136.533v-170.667h102.4v273.067h-68.267zM853.333 238.933h-136.533v-102.4h238.933v273.067h-102.4v-170.667zM102.4 887.467v-273.067h102.4v170.667h136.533v102.4h-238.933zM204.8 409.6h-102.4v-273.067h238.933v102.4h-136.533v170.667z"
				],
				"attrs": [],
				"isMulticolor": false,
				"width": 1058,
				"grid": 24,
				"tags": [
					"fullscreen"
				]
			},
			"attrs": [],
			"properties": {
				"order": 1,
				"id": 7,
				"prevSize": 32,
				"code": 97,
				"name": "fullscreen"
			},
			"setIdx": 3,
			"setId": 0,
			"iconIdx": 1
		},
		{
			"icon": {
				"paths": [
					"M936.311 547.226c-28.604 22.938-637.611 390.451-671.437 415.983-24.781 18.739-57.31-1.98-57.31-44.544 0-43.247 0-801.894 0-831.727 0-38.673 29.423-67.447 58.47-44.817 23.313 18.125 630.511 383.761 670.242 415.027 26.146 20.514 25.702 69.53 0.034 90.078zM308.19 185.071v634.129l513.365-317.065-513.365-317.065z"
				],
				"attrs": [],
				"isMulticolor": false,
				"width": 1058,
				"grid": 24,
				"tags": [
					"start-play"
				]
			},
			"attrs": [],
			"properties": {
				"order": 2,
				"id": 6,
				"prevSize": 32,
				"code": 119,
				"name": "start-play"
			},
			"setIdx": 3,
			"setId": 0,
			"iconIdx": 2
		},
		{
			"icon": {
				"paths": [
					"M989.867 511.283l-477.867 376.183v-295.561l-375.467 295.561v-750.933l375.467 294.468v-294.468l477.867 374.75z"
				],
				"attrs": [],
				"isMulticolor": false,
				"width": 1058,
				"grid": 24,
				"tags": [
					"next"
				]
			},
			"attrs": [],
			"properties": {
				"order": 13,
				"id": 5,
				"prevSize": 32,
				"code": 99,
				"name": "next"
			},
			"setIdx": 3,
			"setId": 0,
			"iconIdx": 3
		},
		{
			"icon": {
				"paths": [
					"M273.067 136.533l580.267 376.081-580.267 374.852v-750.933z"
				],
				"attrs": [],
				"isMulticolor": false,
				"width": 1058,
				"grid": 24,
				"tags": [
					"play"
				]
			},
			"attrs": [],
			"properties": {
				"order": 4,
				"id": 4,
				"prevSize": 32,
				"code": 101,
				"name": "play"
			},
			"setIdx": 3,
			"setId": 0,
			"iconIdx": 4
		},
		{
			"icon": {
				"paths": [
					"M546.133 136.533v294.468l375.467-294.468v750.933l-375.467-295.561v295.561l-477.867-376.183 477.867-374.75z"
				],
				"attrs": [],
				"isMulticolor": false,
				"width": 1058,
				"grid": 24,
				"tags": [
					"prev"
				]
			},
			"attrs": [],
			"properties": {
				"order": 5,
				"id": 3,
				"prevSize": 32,
				"code": 103,
				"name": "prev"
			},
			"setIdx": 3,
			"setId": 0,
			"iconIdx": 5
		},
		{
			"icon": {
				"paths": [
					"M704 637.167c-26.385 0-50.586 9.728-70.076 25.941l-200.397-130.628c0.99-6.656 1.673-13.483 1.673-20.48s-0.683-13.79-1.673-20.514l200.397-130.628c19.456 16.247 43.657 25.975 70.076 25.975 63.59 0 115.2-56.047 115.2-125.133-0-69.12-51.61-125.167-115.2-125.167s-115.2 56.047-115.2 125.167c0 6.963 0.683 13.79 1.673 20.48l-200.397 130.628c-19.422-16.213-43.657-25.975-70.076-25.975-63.625 0-115.2 56.047-115.2 125.167 0 69.086 51.575 125.167 115.2 125.167 26.385 0 50.62-9.728 70.076-26.010l200.397 130.628c-0.99 6.69-1.673 13.517-1.673 20.548 0 69.086 51.61 125.133 115.2 125.133s115.2-56.047 115.2-125.133c0-69.12-51.61-125.167-115.2-125.167z"
				],
				"attrs": [],
				"isMulticolor": false,
				"width": 1058,
				"grid": 24,
				"tags": [
					"share"
				]
			},
			"attrs": [],
			"properties": {
				"order": 6,
				"id": 2,
				"prevSize": 32,
				"code": 115,
				"name": "share"
			},
			"setIdx": 3,
			"setId": 0,
			"iconIdx": 6
		},
		{
			"icon": {
				"paths": [
					"M819.2 785.067v-512h68.267v512h-68.267zM682.667 375.467h68.267v307.2h-68.267v-307.2zM341.333 682.667h-170.667v-307.2h170.667l204.8-238.933h68.267v750.933h-68.267l-204.8-204.8z"
				],
				"attrs": [],
				"isMulticolor": false,
				"width": 1058,
				"grid": 24,
				"tags": [
					"volume"
				]
			},
			"attrs": [],
			"properties": {
				"order": 7,
				"id": 1,
				"prevSize": 32,
				"code": 106,
				"name": "volume"
			},
			"setIdx": 3,
			"setId": 0,
			"iconIdx": 7
		},
		{
			"icon": {
				"paths": [
					"M819.2 716.8v170.667h-102.4v-273.067h238.933v102.4h-136.533zM716.8 409.6v-273.067h102.4v170.667h136.533v102.4h-238.933zM238.933 716.8h-136.533v-102.4h238.933v273.067h-102.4v-170.667zM102.4 409.6v-102.4h136.533v-170.667h102.4v273.067h-238.933z"
				],
				"attrs": [],
				"isMulticolor": false,
				"width": 1058,
				"grid": 24,
				"tags": [
					"windowed"
				]
			},
			"attrs": [],
			"properties": {
				"order": 8,
				"id": 0,
				"prevSize": 32,
				"code": 98,
				"name": "windowed"
			},
			"setIdx": 3,
			"setId": 0,
			"iconIdx": 8
		}
	],
	"height": 1024,
	"metadata": {
		"name": "cinco_video05"
	},
	"preferences": {
		"showGlyphs": true,
		"showCodes": true,
		"showQuickUse": true,
		"showQuickUse2": true,
		"showSVGs": true,
		"fontPref": {
			"prefix": "icon-",
			"metadata": {
				"fontFamily": "cinco_video05",
				"majorVersion": 1,
				"minorVersion": 0
			},
			"metrics": {
				"emSize": 1024,
				"baseline": 6.25,
				"whitespace": 50
			},
			"embed": true
		},
		"imagePref": {
			"prefix": "icon-",
			"png": true,
			"useClassSelector": true,
			"color": 4473924,
			"bgColor": 16777215
		},
		"historySize": 100,
		"gridSize": 16,
		"showGrid": true
	}
}